<?xml version="1.0" encoding="utf-8"?>
<!-- Generator: Adobe Illustrator 22.0.0, SVG Export Plug-In . SVG Version: 6.00 Build 0)  -->
<svg version="1.1" id="Layer_1" xmlns="http://www.w3.org/2000/svg" xmlns:xlink="http://www.w3.org/1999/xlink" x="0px" y="0px"
	 viewBox="0 0 78.1 34.5" style="enable-background:new 0 0 78.1 34.5;" xml:space="preserve">
<style type="text/css">
	.st0{fill:#FFFFFF;}
</style>
<g>
	<g>
		<polygon class="st0" points="13,0 0,22.2 4,22.2 12.9,7.1 13,7.1 21.9,22.2 25.9,22.2 		"/>
		<g>
			<path class="st0" d="M55,14.8v-0.2c2.7-1.1,4.5-3.3,4.5-6.7c0-3.7-2.1-6.1-5.5-6.9l-2.2,2.9c2.5,0.3,4.1,1.7,4.1,4.2
				c0,2.9-2,4.2-5,4.2h-5.6l-3.9,5v4.9h3.6v-6.9h6.2l5.3,6.9h4v-0.5L55,14.8z"/>
		</g>
		<g>
			<polygon class="st0" points="34.2,13.9 42.5,0.5 38.3,0.5 32.3,10.4 26.5,0.5 22.3,0.5 34.2,19.6 			"/>
		</g>
		<g>
			<polygon class="st0" points="66.5,18.3 69.5,22.2 78.1,22.2 78.1,18.3 			"/>
			<path class="st0" d="M78.1,0.5H65.6c1.2,1,2,2.3,2.4,3.8h10.1V0.5z"/>
			<path class="st0" d="M65.5,13.3h9.2V9.4h-6.8C67.5,11,66.6,12.3,65.5,13.3z"/>
		</g>
	</g>
</g>
<g>
	<path class="st0" d="M23.9,32.9h-1.1v-0.5h1.6v0.3c0,1-0.6,1.7-1.5,1.7c-1.1,0-1.7-0.8-1.7-1.8c0-1,0.7-1.8,1.7-1.8
		c0.8,0,1.2,0.4,1.2,0.4l-0.3,0.4c0,0-0.3-0.3-0.9-0.3c-0.7,0-1.2,0.6-1.2,1.3c0,0.7,0.4,1.3,1.2,1.3C23.5,33.9,23.9,33.5,23.9,32.9
		L23.9,32.9z"/>
	<path class="st0" d="M29.7,30.9h1.4c0.8,0,1.3,0.4,1.3,1.2c0,0.5-0.3,0.9-0.7,1.1v0l0.8,1.1v0.1H32l-0.8-1.1h-0.9v1.1h-0.5V30.9z
		 M31.1,31.4h-0.9v1.4h0.9c0.5,0,0.8-0.2,0.8-0.7C31.9,31.7,31.6,31.4,31.1,31.4z"/>
	<path class="st0" d="M37.6,32.7c0-1,0.7-1.8,1.7-1.8c1.1,0,1.7,0.8,1.7,1.8c0,1-0.7,1.8-1.7,1.8C38.3,34.5,37.6,33.7,37.6,32.7z
		 M40.5,32.7c0-0.7-0.5-1.3-1.2-1.3c-0.7,0-1.2,0.5-1.2,1.3c0,0.7,0.5,1.3,1.2,1.3C40,33.9,40.5,33.4,40.5,32.7z"/>
	<path class="st0" d="M46.2,32.9v-2h0.5v2c0,0.6,0.3,1,0.9,1c0.6,0,0.9-0.4,0.9-1v-2h0.5v2c0,0.9-0.5,1.5-1.4,1.5
		C46.8,34.5,46.2,33.8,46.2,32.9z"/>
	<path class="st0" d="M54.5,30.9H56c0.8,0,1.3,0.4,1.3,1.2c0,0.8-0.5,1.2-1.4,1.2h-0.9v1.1h-0.5V30.9z M55.9,31.4h-0.9v1.4h0.9
		c0.5,0,0.8-0.2,0.8-0.7C56.7,31.7,56.4,31.4,55.9,31.4z"/>
</g>
</svg>
