<?xml version="1.0" encoding="UTF-8"?>
<svg width="24px" height="24px" viewBox="0 0 24 24" version="1.1" xmlns="http://www.w3.org/2000/svg" xmlns:xlink="http://www.w3.org/1999/xlink">
    <!-- Generator: Sketch 52.2 (67145) - http://www.bohemiancoding.com/sketch -->
    <title>Icon / Facebook</title>
    <desc>Created with Sketch.</desc>
    <g id="Icon-/-Facebook" stroke="none" stroke-width="1" fill="none" fill-rule="evenodd">
        <path d="M9.5,8.66666667 L7,8.66666667 L7,12 L9.5,12 L9.5,22 L13.6666667,22 L13.6666667,12 L16.7016667,12 L17,8.66666667 L13.6666667,8.66666667 L13.6666667,7.2775 C13.6666667,6.48166667 13.8266667,6.16666667 14.5958333,6.16666667 L17,6.16666667 L17,2 L13.8266667,2 C10.83,2 9.5,3.31916667 9.5,5.84583333 L9.5,8.66666667 Z" id="Shape" fill="#000000" fill-rule="nonzero"></path>
    </g>
</svg>