<?xml version="1.0" encoding="UTF-8"?>
<svg width="24px" height="24px" viewBox="0 0 24 24" version="1.1" xmlns="http://www.w3.org/2000/svg" xmlns:xlink="http://www.w3.org/1999/xlink">
    <!-- Generator: Sketch 52.2 (67145) - http://www.bohemiancoding.com/sketch -->
    <title>Icon / Youtube</title>
    <desc>Created with Sketch.</desc>
    <defs>
        <path d="M22.98,4.73454545 C22.329,3.47127273 21.6225,3.23890909 20.184,3.15054545 C18.747,3.04418182 15.1335,3 12.003,3 C8.8665,3 5.2515,3.04418182 3.816,3.14890909 C2.3805,3.23890909 1.6725,3.46963636 1.0155,4.73454545 C0.345,5.99618182 0,8.16927273 0,11.9950909 C0,11.9983636 0,12 0,12 C0,12.0032727 0,12.0049091 0,12.0049091 L0,12.0081818 C0,15.8176364 0.345,18.0070909 1.0155,19.2556364 C1.6725,20.5189091 2.379,20.748 3.8145,20.8543636 C5.2515,20.946 8.8665,21 12.003,21 C15.1335,21 18.747,20.946 20.1855,20.856 C21.624,20.7496364 22.3305,20.5205455 22.9815,19.2572727 C23.658,18.0087273 24,15.8192727 24,12.0098182 C24,12.0098182 24,12.0049091 24,12.0016364 C24,12.0016364 24,11.9983636 24,11.9967273 C24,8.16927273 23.658,5.99618182 22.98,4.73454545 Z M9,16.75 L9,7.75 L16.5,12.25 L9,16.75 Z" id="path-1"></path>
    </defs>
    <g id="Icon-/-Youtube" stroke="none" stroke-width="1" fill="none" fill-rule="evenodd">
        <mask id="mask-2" fill="white">
            <use xlink:href="#path-1"></use>
        </mask>
        <use id="Shape" fill="#000000" fill-rule="nonzero" xlink:href="#path-1"></use>
    </g>
</svg>