{
    "key": "group_5bf3946d9d0fe",
    "title": "Resource tool",
    "fields": [
        {
            "key": "field_5bf39478b740b",
            "label": "Object Tool",
            "name": "object_tool",
            "type": "select",
            "instructions": "",
            "required": 0,
            "conditional_logic": 0,
            "wrapper": {
                "width": "",
                "class": "",
                "id": ""
            },
            "choices": {
                "exchange": "exchange",
                "wallet": "wallet"
            },
            "default_value": [
                "exchange"
            ],
            "allow_null": 0,
            "multiple": 0,
            "ui": 0,
            "return_format": "value",
            "ajax": 0,
            "placeholder": ""
        }
    ],
    "location": [
        [
            {
                "param": "page_template",
                "operator": "==",
                "value": "pages\/exchange.php"
            }
        ]
    ],
    "menu_order": 0,
    "position": "normal",
    "style": "default",
    "label_placement": "top",
    "instruction_placement": "label",
    "hide_on_screen": "",
    "active": 1,
    "description": "",
    "modified": 1542690031
}