{
    "key": "group_5bfe5679c5c5a",
    "title": "Website Link",
    "fields": [
        {
            "key": "field_5bfe567d1360c",
            "label": "Website Link",
            "name": "website_link",
            "type": "url",
            "instructions": "",
            "required": 0,
            "conditional_logic": 0,
            "wrapper": {
                "width": "",
                "class": "",
                "id": ""
            },
            "default_value": "",
            "placeholder": ""
        }
    ],
    "location": [
        [
            {
                "param": "post_type",
                "operator": "==",
                "value": "event"
            }
        ],
        [
            {
                "param": "post_type",
                "operator": "==",
                "value": "donations"
            }
        ]
    ],
    "menu_order": 0,
    "position": "normal",
    "style": "default",
    "label_placement": "top",
    "instruction_placement": "label",
    "hide_on_screen": "",
    "active": 1,
    "description": "",
    "modified": 1543394987
}