{
    "key": "group_5be90e0b93cb3",
    "title": "Exchange",
    "location": [
        [
            {
                "param": "post_type",
                "operator": "==",
                "value": "exchange"
            }
        ],
        [
            {
                "param": "post_type",
                "operator": "==",
                "value": "wallet"
            }
        ]
    ],
    "menu_order": 0,
    "position": "normal",
    "style": "default",
    "label_placement": "top",
    "instruction_placement": "label",
    "hide_on_screen": "",
    "active": 1,
    "description": "",
    "fields": [
        {
            "key": "field_5be90e261b6e9",
            "label": "Website",
            "name": "website",
            "type": "url",
            "instructions": "",
            "required": 1,
            "conditional_logic": 0,
            "wrapper": {
                "width": "",
                "class": "",
                "id": ""
            },
            "default_value": "",
            "placeholder": ""
        }
    ],
    "modified": 1542102280
}