{
    "key": "group_5a31d74437e15",
    "title": "Events",
    "location": [
        [
            {
                "param": "post_type",
                "operator": "==",
                "value": "event"
            }
        ]
    ],
    "menu_order": 0,
    "position": "normal",
    "style": "default",
    "label_placement": "top",
    "instruction_placement": "label",
    "hide_on_screen": "",
    "active": 1,
    "description": "",
    "modified": 1543809307,
    "fields": [
        {
            "key": "field_5a3a3de7fb9fe",
            "label": "Event Details",
            "name": "",
            "type": "tab",
            "instructions": "",
            "required": 0,
            "conditional_logic": 0,
            "wrapper": {
                "width": "",
                "class": "",
                "id": ""
            },
            "placement": "top",
            "endpoint": 0
        },
        {
            "key": "field_5a31d7473e505",
            "label": "From Date",
            "name": "from_date",
            "type": "date_picker",
            "instructions": "",
            "required": 1,
            "conditional_logic": 0,
            "wrapper": {
                "width": "",
                "class": "",
                "id": ""
            },
            "display_format": "F j, Y",
            "return_format": "F d, Y",
            "first_day": 1
        },
        {
            "key": "field_5a31d76d3e506",
            "label": "To Date",
            "name": "to_date",
            "type": "date_picker",
            "instructions": "Leave blank if the event is only one day",
            "required": 0,
            "conditional_logic": 0,
            "wrapper": {
                "width": "",
                "class": "",
                "id": ""
            },
            "display_format": "F j, Y",
            "return_format": "F d",
            "first_day": 1
        },
        {
            "key": "field_5a31d77c3e507",
            "label": "Location",
            "name": "location",
            "type": "text",
            "instructions": "",
            "required": 1,
            "conditional_logic": 0,
            "wrapper": {
                "width": "",
                "class": "",
                "id": ""
            },
            "default_value": "",
            "placeholder": "",
            "prepend": "",
            "append": "",
            "maxlength": ""
        },
        {
            "key": "field_5a3a3df0fb9ff",
            "label": "Subscribe Details",
            "name": "",
            "type": "tab",
            "instructions": "",
            "required": 0,
            "conditional_logic": 0,
            "wrapper": {
                "width": "",
                "class": "",
                "id": ""
            },
            "placement": "top",
            "endpoint": 0
        },
        {
            "key": "field_5a3267352543d",
            "label": "Subscribe Heading",
            "name": "subscribe_heading",
            "type": "text",
            "instructions": "Shown when you use the [subscribe] shortcode in your post.",
            "required": 0,
            "conditional_logic": 0,
            "wrapper": {
                "width": "",
                "class": "",
                "id": ""
            },
            "default_value": "Get notified when registration opens.",
            "placeholder": "",
            "prepend": "",
            "append": "",
            "maxlength": ""
        },
        {
            "key": "field_5a3267492543e",
            "label": "Subscribe Button Text",
            "name": "subscribe_button_text",
            "type": "text",
            "instructions": "Shown when you use the [subscribe] shortcode in your post.",
            "required": 0,
            "conditional_logic": 0,
            "wrapper": {
                "width": "",
                "class": "",
                "id": ""
            },
            "default_value": "Sign Up",
            "placeholder": "",
            "prepend": "",
            "append": "",
            "maxlength": ""
        }
    ]
}